# Blender MTL File: 'None'
# Material Count: 9

newmtl GDLM55_CAR_BLACK
Ns 0.000000
Ka 1.000000 1.000000 1.000000
Kd 0.200000 0.200000 0.200000
Ks 0.330000 0.330000 0.330000
Ke 0.000000 0.000000 0.000000
Ni 1.450000
d 1.000000
illum 2

newmtl GDLM56_CAR_BODY5
Ns 0.000000
Ka 1.000000 1.000000 1.000000
Kd 0.737255 0.737255 0.737255
Ks 0.330000 0.330000 0.330000
Ke 0.000000 0.000000 0.000000
Ni 1.450000
d 1.000000
illum 2

newmtl GDLM57_CAR_BRAKELIGHT
Ns 0.000000
Ka 1.000000 1.000000 1.000000
Kd 0.800000 0.000000 0.000000
Ks 0.330000 0.330000 0.330000
Ke 0.000000 0.000000 0.000000
Ni 1.450000
d 1.000000
illum 2

newmtl GDLM58_CAR_CHROME
Ns 0.000000
Ka 1.000000 1.000000 1.000000
Kd 1.000000 1.000000 1.000000
Ks 0.330000 0.330000 0.330000
Ke 0.000000 0.000000 0.000000
Ni 1.450000
d 1.000000
illum 2

newmtl GDLM59_CAR_FRONTLIGHT
Ns 0.000000
Ka 1.000000 1.000000 1.000000
Kd 0.698039 0.698039 0.698039
Ks 0.330000 0.330000 0.330000
Ke 0.000000 0.000000 0.000000
Ni 1.450000
d 0.700000
illum 9

newmtl GDLM60_CAR_GLASS
Ns 0.000000
Ka 1.000000 1.000000 1.000000
Kd 0.400000 0.498039 0.498039
Ks 0.330000 0.330000 0.330000
Ke 0.000000 0.000000 0.000000
Ni 1.450000
d 0.400000
illum 9

newmtl GDLM61_CAR_INTERIOR
Ns 0.000000
Ka 1.000000 1.000000 1.000000
Kd 0.298039 0.298039 0.298039
Ks 0.330000 0.330000 0.330000
Ke 0.000000 0.000000 0.000000
Ni 1.450000
d 1.000000
illum 2

newmtl GDLM62_CAR_SIDELIGHT
Ns 0.000000
Ka 1.000000 1.000000 1.000000
Kd 0.988235 0.666667 0.317647
Ks 0.330000 0.330000 0.330000
Ke 0.000000 0.000000 0.000000
Ni 1.450000
d 1.000000
illum 2

newmtl GDLM63_CAR_GREY
Ns 0.000000
Ka 1.000000 1.000000 1.000000
Kd 0.698039 0.698039 0.698039
Ks 0.330000 0.330000 0.330000
Ke 0.000000 0.000000 0.000000
Ni 1.450000
d 1.000000
illum 2
