# Blender MTL File: 'None'
# Material Count: 22

newmtl Body
Ns 0.000000
Ka 1.000000 1.000000 1.000000
Kd 0.862745 0.886275 0.909804
Ks 0.330000 0.330000 0.330000
Ke 0.000000 0.000000 0.000000
Ni 1.450000
d 1.000000
illum 2

newmtl Color_001
Ns 0.000000
Ka 1.000000 1.000000 1.000000
Kd 0.886275 0.886275 0.886275
Ks 0.330000 0.330000 0.330000
Ke 0.000000 0.000000 0.000000
Ni 1.450000
d 1.000000
illum 2

newmtl Color_006
Ns 0.000000
Ka 1.000000 1.000000 1.000000
Kd 0.337255 0.337255 0.337255
Ks 0.330000 0.330000 0.330000
Ke 0.000000 0.000000 0.000000
Ni 1.450000
d 1.000000
illum 2

newmtl Color_007
Ns 0.000000
Ka 1.000000 1.000000 1.000000
Kd 0.227451 0.227451 0.227451
Ks 0.330000 0.330000 0.330000
Ke 0.000000 0.000000 0.000000
Ni 1.450000
d 1.000000
illum 2

newmtl Color_008
Ns 0.000000
Ka 1.000000 1.000000 1.000000
Kd 0.117647 0.117647 0.117647
Ks 0.330000 0.330000 0.330000
Ke 0.000000 0.000000 0.000000
Ni 1.450000
d 1.000000
illum 2

newmtl Dull_Plastic
Ns 0.000000
Ka 1.000000 1.000000 1.000000
Kd 0.819608 0.819608 0.819608
Ks 0.330000 0.330000 0.330000
Ke 0.000000 0.000000 0.000000
Ni 1.450000
d 1.000000
illum 2

newmtl Dull_metal__Alloy_Mag
Ns 0.000000
Ka 1.000000 1.000000 1.000000
Kd 0.686275 0.686275 0.686275
Ks 0.330000 0.330000 0.330000
Ke 0.000000 0.000000 0.000000
Ni 1.450000
d 1.000000
illum 2

newmtl FrontColor
Ns 0.000000
Ka 1.000000 1.000000 1.000000
Kd 1.000000 1.000000 1.000000
Ks 0.330000 0.330000 0.330000
Ke 0.000000 0.000000 0.000000
Ni 1.450000
d 1.000000
illum 2

newmtl Glass_Plastic_Dark
Ns 0.000000
Ka 1.000000 1.000000 1.000000
Kd 0.298039 0.298039 0.298039
Ks 0.330000 0.330000 0.330000
Ke 0.000000 0.000000 0.000000
Ni 1.450000
d 0.750000
illum 9

newmtl Indicator
Ns 0.000000
Ka 1.000000 1.000000 1.000000
Kd 0.737255 0.329412 0.035294
Ks 0.330000 0.330000 0.330000
Ke 0.000000 0.000000 0.000000
Ni 1.450000
d 0.900000
illum 9

newmtl Material2
Ns 0.000000
Ka 1.000000 1.000000 1.000000
Kd 1.000000 0.011765 0.000000
Ks 0.330000 0.330000 0.330000
Ke 0.000000 0.000000 0.000000
Ni 1.450000
d 1.000000
illum 2

newmtl Plastic_Transparent
Ns 0.000000
Ka 1.000000 1.000000 1.000000
Kd 0.168627 0.168627 0.168627
Ks 0.330000 0.330000 0.330000
Ke 0.000000 0.000000 0.000000
Ni 1.450000
d 0.620000
illum 9

newmtl Rubber_Plastic
Ns 0.000000
Ka 1.000000 1.000000 1.000000
Kd 0.058824 0.058824 0.058824
Ks 0.330000 0.330000 0.330000
Ke 0.000000 0.000000 0.000000
Ni 1.450000
d 1.000000
illum 2

newmtl Shadow_Backface
Ns 0.000000
Ka 1.000000 1.000000 1.000000
Kd 0.000000 0.000000 0.000000
Ks 0.330000 0.330000 0.330000
Ke 0.000000 0.000000 0.000000
Ni 1.450000
d 1.000000
illum 2

newmtl Silver_Reflective_plastic
Ns 0.000000
Ka 1.000000 1.000000 1.000000
Kd 0.698039 0.698039 0.698039
Ks 0.330000 0.330000 0.330000
Ke 0.000000 0.000000 0.000000
Ni 1.450000
d 1.000000
illum 2

newmtl TailLight_Red
Ns 0.000000
Ka 1.000000 1.000000 1.000000
Kd 0.619608 0.000000 0.000000
Ks 0.330000 0.330000 0.330000
Ke 0.000000 0.000000 0.000000
Ni 1.450000
d 0.900000
illum 9

newmtl Window_Dark
Ns 0.000000
Ka 1.000000 1.000000 1.000000
Kd 0.015686 0.015686 0.015686
Ks 0.330000 0.330000 0.330000
Ke 0.000000 0.000000 0.000000
Ni 1.450000
d 1.000000
illum 2

newmtl Windows
Ns 0.000000
Ka 1.000000 1.000000 1.000000
Kd 0.000000 0.000000 0.000000
Ks 0.330000 0.330000 0.330000
Ke 0.000000 0.000000 0.000000
Ni 1.450000
d 1.000000
illum 2

newmtl _1
Ns 0.000000
Ka 1.000000 1.000000 1.000000
Kd 0.717647 0.717647 0.717647
Ks 0.330000 0.330000 0.330000
Ke 0.000000 0.000000 0.000000
Ni 1.450000
d 1.000000
illum 2

newmtl _Charcoal_
Ns 0.000000
Ka 1.000000 1.000000 1.000000
Kd 0.137255 0.137255 0.137255
Ks 0.330000 0.330000 0.330000
Ke 0.000000 0.000000 0.000000
Ni 1.450000
d 1.000000
illum 2

newmtl _DarkGray_
Ns 0.000000
Ka 1.000000 1.000000 1.000000
Kd 0.376471 0.376471 0.376471
Ks 0.330000 0.330000 0.330000
Ke 0.000000 0.000000 0.000000
Ni 1.450000
d 1.000000
illum 2

newmtl ford_logo
Ns 0.000000
Ka 1.000000 1.000000 1.000000
Kd 0.070588 0.074510 0.086275
Ks 0.330000 0.330000 0.330000
Ke 0.000000 0.000000 0.000000
Ni 1.450000
d 1.000000
illum 2
map_Kd car_008\\ford_logo.jpg
