# Blender MTL File: 'None'
# Material Count: 16

newmtl Black_Plastic1.001
Ns 0.000000
Ka 1.000000 1.000000 1.000000
Kd 0.078431 0.078431 0.078431
Ks 0.330000 0.330000 0.330000
Ke 0.000000 0.000000 0.000000
Ni 1.450000
d 1.000000
illum 2

newmtl Black_Plastic2.001
Ns 0.000000
Ka 1.000000 1.000000 1.000000
Kd 0.113725 0.113725 0.113725
Ks 0.330000 0.330000 0.330000
Ke 0.000000 0.000000 0.000000
Ni 1.450000
d 1.000000
illum 2

newmtl Black_glass1.001
Ns 0.000000
Ka 1.000000 1.000000 1.000000
Kd 0.047059 0.047059 0.047059
Ks 0.330000 0.330000 0.330000
Ke 0.000000 0.000000 0.000000
Ni 1.450000
d 1.000000
illum 2

newmtl FrontColor.001
Ns 0.000000
Ka 1.000000 1.000000 1.000000
Kd 1.000000 1.000000 1.000000
Ks 0.330000 0.330000 0.330000
Ke 0.000000 0.000000 0.000000
Ni 1.450000
d 1.000000
illum 2

newmtl _1.001
Ns 0.000000
Ka 1.000000 1.000000 1.000000
Kd 1.000000 0.203922 0.176471
Ks 0.330000 0.330000 0.330000
Ke 0.000000 0.000000 0.000000
Ni 1.450000
d 1.000000
illum 2

newmtl _2.001
Ns 0.000000
Ka 1.000000 1.000000 1.000000
Kd 0.356863 0.321569 0.243137
Ks 0.330000 0.330000 0.330000
Ke 0.000000 0.000000 0.000000
Ni 1.450000
d 1.000000
illum 2

newmtl _3.001
Ns 0.000000
Ka 1.000000 1.000000 1.000000
Kd 0.698039 0.698039 0.698039
Ks 0.330000 0.330000 0.330000
Ke 0.000000 0.000000 0.000000
Ni 1.450000
d 1.000000
illum 2

newmtl _Beige_1.001
Ns 0.000000
Ka 1.000000 1.000000 1.000000
Kd 0.827451 0.741176 0.564706
Ks 0.330000 0.330000 0.330000
Ke 0.000000 0.000000 0.000000
Ni 1.450000
d 1.000000
illum 2

newmtl _Black_.001
Ns 0.000000
Ka 1.000000 1.000000 1.000000
Kd 0.000000 0.000000 0.000000
Ks 0.330000 0.330000 0.330000
Ke 0.000000 0.000000 0.000000
Ni 1.450000
d 1.000000
illum 2

newmtl body_color1.001
Ns 0.000000
Ka 1.000000 1.000000 1.000000
Kd 0.705882 0.125490 0.105882
Ks 0.330000 0.330000 0.330000
Ke 0.000000 0.000000 0.000000
Ni 1.450000
d 1.000000
illum 2

newmtl glass1.001
Ns 0.000000
Ka 1.000000 1.000000 1.000000
Kd 0.090196 0.137255 0.125490
Ks 0.330000 0.330000 0.330000
Ke 0.000000 0.000000 0.000000
Ni 1.450000
d 0.800000
illum 9

newmtl metal1.001
Ns 0.000000
Ka 1.000000 1.000000 1.000000
Kd 0.941176 0.941176 0.941176
Ks 0.330000 0.330000 0.330000
Ke 0.000000 0.000000 0.000000
Ni 1.450000
d 1.000000
illum 2

newmtl metal2.001
Ns 0.000000
Ka 1.000000 1.000000 1.000000
Kd 0.835294 0.854902 0.886275
Ks 0.330000 0.330000 0.330000
Ke 0.000000 0.000000 0.000000
Ni 1.450000
d 1.000000
illum 2

newmtl plt1.001
Ns 0.000000
Ka 1.000000 1.000000 1.000000
Kd 0.580392 0.639216 0.662745
Ks 0.330000 0.330000 0.330000
Ke 0.000000 0.000000 0.000000
Ni 1.450000
d 0.450000
illum 9

newmtl plt2.001
Ns 0.000000
Ka 1.000000 1.000000 1.000000
Kd 1.000000 0.631373 0.054902
Ks 0.330000 0.330000 0.330000
Ke 0.000000 0.000000 0.000000
Ni 1.450000
d 0.450000
illum 9

newmtl tire1.001
Ns 0.000000
Ka 1.000000 1.000000 1.000000
Kd 0.078431 0.078431 0.078431
Ks 0.330000 0.330000 0.330000
Ke 0.000000 0.000000 0.000000
Ni 1.450000
d 1.000000
illum 2
