# File produced by Open Asset Import Library (http://www.assimp.sf.net)
# (assimp v5.0.0)

# mtllib material.mtl
# usemtl Iron

# 482 vertex positions
v  0 -0.46193999 -0.191341
v  0.037328999 -0.46193999 -0.187665
v  0.019029999 -0.49039301 -0.095670998
v  0 -0.49039301 -0.097544998
v  0 0.097544998 -0.49039301
v  0.095670998 0.097544998 -0.48097
v  0.097544998 0 -0.49039301
v  0 0 -0.5
v  0 0.49039301 -0.097544998
v  0 0.5 0
v  0.019029999 0.49039301 -0.095670998
v  0 -0.5 0
v  0.095670998 -0.097544998 -0.48097
v  0 -0.097544998 -0.49039301
v  0.037328999 0.46193999 -0.187665
v  0 0.46193999 -0.191342
v  0.090120003 -0.191342 -0.45306399
v  0 -0.191342 -0.46193999
v  0.054193001 0.41573501 -0.272448
v  0 0.41573501 -0.277785
v  0.081106 -0.277785 -0.407747
v  0 -0.277785 -0.41573399
v  0.068975002 0.353553 -0.34676
v  0 0.353553 -0.353553
v  0.068975002 -0.353553 -0.34676
v  0 -0.353553 -0.353553
v  0.081106 0.277785 -0.407747
v  0 0.277785 -0.41573501
v  0.054193001 -0.41573501 -0.272448
v  0 -0.41573501 -0.277785
v  0.090120003 0.191342 -0.45306399
v  0 0.191342 -0.46193999
v  0.106304 -0.41573501 -0.25663999
v  0.073223002 -0.46193999 -0.17677701
v  0.17677701 0.191342 -0.42677701
v  0.187665 0.097544998 -0.45306399
v  0.037328999 -0.49039301 -0.090120003
v  0.191342 0 -0.46193999
v  0.037328999 0.49039301 -0.090120003
v  0.187665 -0.097544998 -0.45306399
v  0.073223002 0.46193999 -0.17677701
v  0.17677701 -0.191342 -0.42677701
v  0.106304 0.41573501 -0.25663999
v  0.159095 -0.277785 -0.38408899
v  0.135299 0.353553 -0.32664099
v  0.135299 -0.353553 -0.32664099
v  0.159095 0.277785 -0.38408899
v  0.106304 0.46193999 -0.159095
v  0.154329 0.41573501 -0.23097
v  0.25663999 -0.191342 -0.38408899
v  0.23097 -0.277785 -0.345671
v  0.19642401 0.353553 -0.29396901
v  0.19642401 -0.353553 -0.29396901
v  0.23097 0.277785 -0.345671
v  0.154329 -0.41573501 -0.23097
v  0.25663999 0.191342 -0.38408899
v  0.106304 -0.46193999 -0.159095
v  0.272448 0.097544998 -0.40774599
v  0.054193001 -0.49039301 -0.081106
v  0.277785 0 -0.41573501
v  0.054193001 0.49039301 -0.081106
v  0.272448 -0.097544998 -0.40774599
v  0.32664099 0.191342 -0.32664099
v  0.34676 0.097544998 -0.34676
v  0.135299 -0.46193999 -0.135299
v  0.068975002 -0.49039301 -0.068975002
v  0.35355401 0 -0.353553
v  0.068975002 0.49039301 -0.068975002
v  0.34676 -0.097544998 -0.34676
v  0.135299 0.46193999 -0.135299
v  0.32664099 -0.191342 -0.32664099
v  0.19642401 0.41573501 -0.19642401
v  0.29396901 -0.277785 -0.29396901
v  0.25 0.353553 -0.25
v  0.25 -0.353553 -0.25
v  0.29396901 0.277785 -0.29396901
v  0.19642401 -0.41573501 -0.19642401
v  0.38408899 -0.191342 -0.25663999
v  0.345671 -0.277785 -0.23097
v  0.23097 0.41573501 -0.154329
v  0.29396901 0.353553 -0.19642401
v  0.29396901 -0.353553 -0.19642401
v  0.345671 0.277785 -0.23097
v  0.23097 -0.41573501 -0.154329
v  0.38408899 0.191342 -0.25663999
v  0.159095 -0.46193999 -0.106304
v  0.407747 0.097544998 -0.27244699
v  0.081106 -0.49039301 -0.054193001
v  0.41573501 0 -0.277785
v  0.081106 0.49039301 -0.054193001
v  0.407747 -0.097544998 -0.27244699
v  0.159095 0.46193999 -0.106304
v  0.17677701 -0.46193999 -0.073223002
v  0.090120003 -0.49039301 -0.037328999
v  0.45306399 0.097544998 -0.187665
v  0.46193999 0 -0.191342
v  0.090120003 0.49039301 -0.037328999
v  0.45306399 -0.097544998 -0.187665
v  0.17677701 0.46193999 -0.073223002
v  0.42677701 -0.191342 -0.17677701
v  0.25663999 0.41573501 -0.106304
v  0.38408899 -0.277785 -0.159095
v  0.32664099 0.353553 -0.135299
v  0.32664099 -0.353553 -0.135299
v  0.38408899 0.277785 -0.159095
v  0.25663999 -0.41573501 -0.106304
v  0.42677701 0.191342 -0.17677701
v  0.407747 -0.277785 -0.081106
v  0.34676 -0.353553 -0.068975002
v  0.34676 0.353553 -0.068975002
v  0.407747 0.277785 -0.081106
v  0.272448 -0.41573501 -0.054193001
v  0.45306399 0.191342 -0.090120003
v  0.187665 -0.46193999 -0.037328999
v  0.48097 0.097544998 -0.095670998
v  0.095670998 -0.49039301 -0.019029999
v  0.49039301 0 -0.097544998
v  0.095670998 0.49039301 -0.019029999
v  0.48097 -0.097544998 -0.095670998
v  0.187665 0.46193999 -0.037328999
v  0.45306399 -0.191342 -0.090120003
v  0.272448 0.41573501 -0.054193001
v  0.097544998 0.49039301 0
v  0.097544998 -0.49039301 0
v  0.5 0 0
v  0.49039301 -0.097544998 0
v  0.191342 0.46193999 0
v  0.46193999 -0.191342 0
v  0.277785 0.41573501 0
v  0.41573501 -0.277785 0
v  0.353553 0.353553 0
v  0.353553 -0.353553 0
v  0.41573501 0.277785 0
v  0.277785 -0.41573501 0
v  0.46193999 0.191342 0
v  0.191342 -0.46193999 0
v  0.49039301 0.097544998 0
v  0.34676 0.353553 0.068975002
v  0.407747 0.277785 0.081106
v  0.34676 -0.353553 0.068975002
v  0.272448 -0.41573501 0.054193001
v  0.45306399 0.191342 0.090120003
v  0.187665 -0.46193999 0.037328999
v  0.48097 0.097544998 0.095670998
v  0.095670998 -0.49039301 0.019029999
v  0.49039301 0 0.097544998
v  0.095670998 0.49039301 0.019029999
v  0.48097 -0.097544998 0.095670998
v  0.187665 0.46193999 0.037328999
v  0.45306399 -0.191342 0.090120003
v  0.272448 0.41573501 0.054193001
v  0.407747 -0.277785 0.081106
v  0.46193999 0 0.191342
v  0.45306399 -0.097544998 0.187665
v  0.090120003 0.49039301 0.037328999
v  0.17677701 0.46193999 0.073224001
v  0.42677701 -0.191342 0.17677701
v  0.25663999 0.41573501 0.106304
v  0.38408899 -0.277785 0.159095
v  0.32664099 0.353553 0.135299
v  0.32664099 -0.353553 0.135299
v  0.38408899 0.277785 0.159095
v  0.25663999 -0.41573501 0.106304
v  0.42677701 0.191342 0.17677701
v  0.17677701 -0.46193999 0.073223002
v  0.45306399 0.097544998 0.187665
v  0.090120003 -0.49039301 0.037328999
v  0.29396901 -0.353553 0.19642401
v  0.23097 -0.41573501 0.154329
v  0.345671 0.277785 0.23097
v  0.38408899 0.191342 0.25663999
v  0.159095 -0.46193999 0.106304
v  0.407747 0.097544998 0.272448
v  0.081106 -0.49039301 0.054193001
v  0.41573501 0 0.277785
v  0.081106 0.49039301 0.054193001
v  0.407747 -0.097544998 0.272448
v  0.159095 0.46193999 0.106304
v  0.38408899 -0.191342 0.25663999
v  0.23097 0.41573501 0.154329
v  0.345671 -0.277785 0.23097
v  0.29396901 0.353553 0.19642401
v  0.068975002 0.49039301 0.068975002
v  0.135299 0.46193999 0.135299
v  0.34676 -0.097544998 0.34676
v  0.32664099 -0.191342 0.32664099
v  0.19642401 0.41573501 0.19642401
v  0.29396901 -0.277785 0.29396901
v  0.25 0.353553 0.25
v  0.25 -0.353553 0.25
v  0.29396901 0.277785 0.29396901
v  0.19642401 -0.41573501 0.19642401
v  0.32664099 0.191342 0.32664099
v  0.135299 -0.46193999 0.135299
v  0.34676 0.097544998 0.34676
v  0.068975002 -0.49039301 0.068975002
v  0.353553 0 0.35355401
v  0.23097 0.277785 0.345671
v  0.25663999 0.191342 0.38408899
v  0.154329 -0.41573501 0.23097
v  0.106304 -0.46193999 0.159095
v  0.27244699 0.097544998 0.407747
v  0.054193001 -0.49039301 0.081106
v  0.277785 0 0.41573501
v  0.054193001 0.49039301 0.081106
v  0.27244699 -0.097544998 0.407747
v  0.106304 0.46193999 0.159095
v  0.25663999 -0.191342 0.38408899
v  0.154329 0.41573501 0.23097
v  0.23097 -0.277785 0.345671
v  0.19642401 0.353553 0.29396901
v  0.19642401 -0.353553 0.29396901
v  0.187665 -0.097544998 0.45306399
v  0.17677701 -0.191342 0.42677701
v  0.073223002 0.46193999 0.17677701
v  0.106304 0.41573501 0.25663999
v  0.159095 -0.277785 0.38408899
v  0.135299 0.353553 0.32664099
v  0.135299 -0.353553 0.32664099
v  0.159095 0.277785 0.38408899
v  0.106304 -0.41573501 0.25663999
v  0.17677701 0.191342 0.42677701
v  0.073223002 -0.46193999 0.17677701
v  0.187665 0.097544998 0.45306399
v  0.037328999 -0.49039301 0.090120003
v  0.191342 0 0.46193999
v  0.037328999 0.49039301 0.090120003
v  0.054193001 -0.41573501 0.272448
v  0.037328999 -0.46193999 0.187665
v  0.090120003 0.191342 0.45306399
v  0.095670998 0.097544998 0.48097
v  0.019029999 -0.49039301 0.095670998
v  0.097544998 0 0.49039301
v  0.019029999 0.49039301 0.095670998
v  0.095670998 -0.097544998 0.48097
v  0.037328999 0.46193999 0.187665
v  0.090120003 -0.191342 0.45306399
v  0.054193001 0.41573501 0.272448
v  0.081106 -0.277785 0.407747
v  0.068975002 0.353553 0.34676
v  0.068975002 -0.353553 0.34676
v  0.081106 0.277785 0.407747
v  0 -0.191342 0.46193999
v  0 -0.277785 0.41573501
v  0 0.41573501 0.277785
v  0 0.353553 0.35355401
v  0 -0.353553 0.35355401
v  0 0.277785 0.41573501
v  0 -0.41573501 0.277785
v  0 0.191342 0.46193999
v  0 -0.46193999 0.191342
v  0 0.097544998 0.49039301
v  0 -0.49039301 0.097544998
v  0 0 0.5
v  0 0.49039301 0.097544998
v  0 -0.097544998 0.49039301
v  0 0.46193999 0.191342
v  -0.037328999 -0.46193999 0.187665
v  -0.019029999 -0.49039301 0.095670998
v  -0.095670998 0.097544998 0.48097
v  -0.097544998 0 0.49039301
v  -0.019029999 0.49039301 0.095670998
v  -0.095670998 -0.097544998 0.48097
v  -0.037328999 0.46193999 0.187665
v  -0.090120003 -0.191342 0.45306399
v  -0.054193001 0.41573501 0.272448
v  -0.081106 -0.277785 0.407747
v  -0.068975002 0.353553 0.34676
v  -0.068975002 -0.353553 0.34676
v  -0.081106 0.277785 0.407747
v  -0.054193001 -0.41573501 0.272448
v  -0.090120003 0.191342 0.45306399
v  -0.106304 0.41573501 0.25663999
v  -0.135299 0.353553 0.32664099
v  -0.159095 -0.277785 0.38408899
v  -0.135299 -0.353553 0.32664099
v  -0.159095 0.277785 0.38408899
v  -0.106304 -0.41573501 0.25663999
v  -0.17677701 0.191342 0.42677701
v  -0.073223002 -0.46193999 0.17677701
v  -0.187665 0.097544998 0.45306399
v  -0.037328999 -0.49039301 0.090120003
v  -0.191342 0 0.46193999
v  -0.037328999 0.49039301 0.090120003
v  -0.187665 -0.097544998 0.45306399
v  -0.073223002 0.46193999 0.17677701
v  -0.17677701 -0.191342 0.42677701
v  -0.272448 0.097544998 0.407747
v  -0.277785 0 0.41573501
v  -0.054193001 0.49039301 0.081106
v  -0.054193001 -0.49039301 0.081106
v  -0.272448 -0.097544998 0.407747
v  -0.106304 0.46193999 0.159095
v  -0.25663999 -0.191342 0.38408899
v  -0.154329 0.41573501 0.23097
v  -0.23097 -0.277785 0.345671
v  -0.19642401 0.353553 0.29396901
v  -0.19642401 -0.353553 0.29396901
v  -0.23097 0.277785 0.345671
v  -0.154329 -0.41573501 0.23097
v  -0.25663999 0.191342 0.38408899
v  -0.106304 -0.46193999 0.159095
v  -0.29396901 -0.277785 0.29396901
v  -0.25 -0.353553 0.25
v  -0.25 0.353553 0.25
v  -0.29396901 0.277785 0.29396901
v  -0.19642401 -0.41573501 0.19642401
v  -0.32664099 0.191342 0.32664099
v  -0.135299 -0.46193999 0.135299
v  -0.34676 0.097544998 0.34676
v  -0.068975002 -0.49039301 0.068975002
v  -0.353553 0 0.353553
v  -0.068975002 0.49039301 0.068975002
v  -0.34676 -0.097544998 0.34676
v  -0.135299 0.46193999 0.135299
v  -0.32664099 -0.191342 0.32664099
v  -0.19642401 0.41573501 0.19642401
v  -0.081106 0.49039301 0.054193001
v  -0.081106 -0.49039301 0.054193001
v  -0.41573501 0 0.277785
v  -0.40774599 -0.097544998 0.272448
v  -0.159095 0.46193999 0.106304
v  -0.38408899 -0.191342 0.25663999
v  -0.23097 0.41573501 0.154329
v  -0.345671 -0.277785 0.23097
v  -0.29396901 0.353553 0.19642401
v  -0.29396901 -0.353553 0.19642401
v  -0.345671 0.277785 0.23097
v  -0.23097 -0.41573501 0.154329
v  -0.38408899 0.191342 0.25663999
v  -0.159095 -0.46193999 0.106304
v  -0.40774599 0.097544998 0.272448
v  -0.32664099 0.353553 0.135299
v  -0.38408899 0.277785 0.159095
v  -0.32664099 -0.353553 0.135299
v  -0.25663999 -0.41573501 0.106304
v  -0.42677701 0.191342 0.17677701
v  -0.17677701 -0.46193999 0.073223002
v  -0.45306399 0.097544998 0.187665
v  -0.090120003 -0.49039301 0.037328999
v  -0.46193999 0 0.191342
v  -0.090120003 0.49039301 0.037328999
v  -0.45306399 -0.097544998 0.187665
v  -0.17677701 0.46193999 0.073223002
v  -0.42677701 -0.191342 0.17677701
v  -0.25663999 0.41573501 0.106304
v  -0.38408899 -0.277785 0.159095
v  -0.49039301 0 0.097544998
v  -0.48097 -0.097544998 0.095670998
v  -0.095670998 0.49039301 0.019029999
v  -0.187665 0.46193999 0.037328999
v  -0.45306399 -0.191342 0.090120003
v  -0.272448 0.41573501 0.054193001
v  -0.40774599 -0.277785 0.081106
v  -0.34676 0.353553 0.068975002
v  -0.34676 -0.353553 0.068975002
v  -0.40774599 0.277785 0.081106
v  -0.27244699 -0.41573501 0.054193001
v  -0.45306399 0.191342 0.090120003
v  -0.187665 -0.46193999 0.037328999
v  -0.48097 0.097544998 0.095670998
v  -0.095670998 -0.49039301 0.019029999
v  -0.353553 -0.353553 0
v  -0.277785 -0.41573501 0
v  -0.41573501 0.277785 0
v  -0.46193999 0.191342 0
v  -0.191342 -0.46193999 0
v  -0.490392 0.097544998 0
v  -0.097544998 -0.49039301 0
v  -0.5 0 0
v  -0.097544998 0.49039301 0
v  -0.490392 -0.097544998 0
v  -0.191342 0.46193999 0
v  -0.46193999 -0.191342 0
v  -0.277785 0.41573501 0
v  -0.41573501 -0.277785 0
v  -0.353553 0.353553 0
v  -0.48097 -0.097544998 -0.095670998
v  -0.45306399 -0.191342 -0.090120003
v  -0.187665 0.46193999 -0.037328999
v  -0.272448 0.41573501 -0.054193001
v  -0.40774599 -0.277785 -0.081106
v  -0.34676 0.353553 -0.068975002
v  -0.34676 -0.353553 -0.068975002
v  -0.40774599 0.277785 -0.081106
v  -0.27244699 -0.41573501 -0.054193001
v  -0.45306399 0.191342 -0.090120003
v  -0.187665 -0.46193999 -0.037328999
v  -0.48097 0.097544998 -0.095670998
v  -0.095670998 -0.49039301 -0.019029999
v  -0.49039301 0 -0.097544998
v  -0.095670998 0.49039301 -0.019029999
v  -0.25663999 -0.41573501 -0.106304
v  -0.17677701 -0.46193999 -0.073223002
v  -0.42677701 0.191342 -0.17677701
v  -0.45306301 0.097544998 -0.187665
v  -0.090120003 -0.49039301 -0.037328999
v  -0.46193999 0 -0.191342
v  -0.090120003 0.49039301 -0.037328999
v  -0.45306301 -0.097544998 -0.187665
v  -0.17677701 0.46193999 -0.073223002
v  -0.42677701 -0.191342 -0.17677701
v  -0.25663999 0.41573501 -0.106304
v  -0.38408899 -0.277785 -0.159095
v  -0.32664099 0.353553 -0.135299
v  -0.32664099 -0.353553 -0.135299
v  -0.38408899 0.277785 -0.159095
v  -0.159095 0.46193999 -0.106304
v  -0.23097 0.41573501 -0.154329
v  -0.38408899 -0.191342 -0.25663999
v  -0.345671 -0.277785 -0.23097
v  -0.29396901 0.353553 -0.19642401
v  -0.29396901 -0.353553 -0.19642401
v  -0.345671 0.277785 -0.23097
v  -0.23097 -0.41573501 -0.154329
v  -0.38408899 0.191342 -0.25663999
v  -0.159095 -0.46193999 -0.106304
v  -0.40774599 0.097544998 -0.27244699
v  -0.081106 -0.49039301 -0.054193001
v  -0.41573501 0 -0.277785
v  -0.081106 0.49039301 -0.054193001
v  -0.40774599 -0.097544998 -0.27244699
v  -0.32664099 0.191342 -0.32664099
v  -0.34676 0.097544998 -0.34676
v  -0.135299 -0.46193999 -0.135299
v  -0.068975002 -0.49039301 -0.068975002
v  -0.353553 0 -0.353553
v  -0.068975002 0.49039301 -0.068975002
v  -0.34676 -0.097544998 -0.34676
v  -0.135299 0.46193999 -0.135299
v  -0.32664099 -0.191342 -0.32664099
v  -0.19642401 0.41573501 -0.19642401
v  -0.29396901 -0.277785 -0.29396901
v  -0.25 0.353553 -0.25
v  -0.25 -0.353553 -0.25
v  -0.29396901 0.277785 -0.29396901
v  -0.19642401 -0.41573501 -0.19642401
v  -0.25663999 -0.191342 -0.38408899
v  -0.23097 -0.277785 -0.345671
v  -0.154329 0.41573501 -0.23097
v  -0.19642401 0.353553 -0.29396901
v  -0.19642401 -0.353553 -0.29396901
v  -0.23097 0.277785 -0.345671
v  -0.154329 -0.41573501 -0.23097
v  -0.25663999 0.191342 -0.38408899
v  -0.106304 -0.46193999 -0.159095
v  -0.27244699 0.097544998 -0.40774599
v  -0.054193001 -0.49039301 -0.081106
v  -0.277785 0 -0.41573501
v  -0.054193001 0.49039301 -0.081106
v  -0.27244699 -0.097544998 -0.40774599
v  -0.106304 0.46193999 -0.159095
v  -0.073223002 -0.46193999 -0.17677601
v  -0.037328999 -0.49039301 -0.090120003
v  -0.187665 0.097544998 -0.45306301
v  -0.191342 0 -0.46193901
v  -0.037328999 0.49039301 -0.090120003
v  -0.187665 -0.097544998 -0.45306301
v  -0.073223002 0.46193999 -0.17677601
v  -0.17677701 -0.191342 -0.42677599
v  -0.106304 0.41573501 -0.25663999
v  -0.159095 -0.277785 -0.38408899
v  -0.135299 0.353553 -0.32664099
v  -0.135299 -0.353553 -0.32664099
v  -0.159095 0.277785 -0.38408899
v  -0.106304 -0.41573501 -0.25663999
v  -0.17677701 0.191342 -0.42677599
v  -0.054193001 0.41573501 -0.27244699
v  -0.068975002 0.353553 -0.34676
v  -0.081106 -0.277785 -0.40774599
v  -0.068975002 -0.353553 -0.34676
v  -0.081106 0.277785 -0.40774599
v  -0.054193001 -0.41573501 -0.27244699
v  -0.090120003 0.191342 -0.45306301
v  -0.037328999 -0.46193999 -0.187665
v  -0.095670998 0.097544998 -0.48096901
v  -0.019029999 -0.49039301 -0.095670998
v  -0.097544998 0 -0.490392
v  -0.019029999 0.49039301 -0.095670998
v  -0.095670998 -0.097544998 -0.48096901
v  -0.037328999 0.46193999 -0.187665
v  -0.090120003 -0.191342 -0.45306301

# 0 UV coordinates

# 482 vertex normals
vn -0.0029846022 -0.92388755 -0.38265252
vn 0.071722038 -0.92388821 -0.37588108
vn 0.036181942 -0.97674048 -0.21135034
vn -0.0057428721 -0.97674036 -0.21434869
vn 0.00061945798 0.19510654 -0.98078185
vn 0.19195457 0.19510762 -0.96181422
vn 0.19508947 -7.4598216e-07 -0.98078549
vn -5.1265906e-06 -3.88663e-08 -1
vn 0.0057444363 0.97674048 -0.21434751
vn 4.3869014e-10 1 2.3396807e-10
vn 0.047449134 0.97674054 -0.20910887
vn 6.7265821e-10 -1 -2.3396807e-10
vn 0.1907278 -0.1951064 -0.96205848
vn -0.00062956387 -0.19510646 -0.98078185
vn 0.077577524 0.92388785 -0.37471712
vn 0.0029830446 0.92388779 -0.38265175
vn 0.17903396 -0.38271323 -0.90635395
vn -0.0012350032 -0.3827166 -0.92386502
vn 0.11100835 0.83148921 -0.54433697
vn 0.0026756967 0.83148795 -0.55553627
vn 0.16045259 -0.55560833 -0.81581515
vn -0.0017904293 -0.55560809 -0.83144242
vn 0.14017224 0.70713669 -0.69304365
vn 0.0022741677 0.70713812 -0.70707184
vn 0.13570802 -0.70713669 -0.69393152
vn -0.0022761503 -0.70713454 -0.70707536
vn 0.1639559 0.55560786 -0.81511867
vn 0.0017819005 0.55560702 -0.83144313
vn 0.10574811 -0.83148903 -0.54538357
vn -0.002684643 -0.83148992 -0.55553329
vn 0.18144014 0.38271251 -0.90587556
vn 0.0012230505 0.38271382 -0.92386609
vn 0.21011813 -0.83148891 -0.51427299
vn 0.14367734 -0.92388785 -0.35466596
vn 0.3546842 0.38271281 -0.85307091
vn 0.37590778 0.19510736 -0.90588433
vn 0.076720484 -0.97674048 -0.20022953
vn 0.3826848 -4.5385818e-07 -0.92387903
vn 0.087333761 0.9767406 -0.19583312
vn 0.37475336 -0.19510643 -0.90636271
vn 0.14918959 0.92388755 -0.35238358
vn 0.35241494 -0.38271341 -0.8540107
vn 0.21507089 0.83148956 -0.51222044
vn 0.3165316 -0.55560654 -0.76883614
vn 0.27268755 0.70713663 -0.65237975
vn 0.26848286 -0.70713741 -0.65412062
vn 0.31982943 0.5556072 -0.76746976
vn 0.21507043 0.92388779 -0.31650594
vn 0.31086686 0.83148885 -0.46042171
vn 0.51225322 -0.38271219 -0.76884842
vn 0.4604423 -0.55560654 -0.69231075
vn 0.39472136 0.70713717 -0.58664477
vn 0.39093697 -0.70713669 -0.58917397
vn 0.46340886 0.55560637 -0.69032872
vn 0.30640915 -0.83148932 -0.46339938
vn 0.51429325 0.38271216 -0.76748538
vn 0.21011001 -0.92388767 -0.319821
vn 0.54541403 0.19510671 -0.81514215
vn 0.11430831 -0.9767406 -0.18141493
vn 0.5555712 2.2066027e-07 -0.831469
vn 0.12386068 0.9767406 -0.17503266
vn 0.54437411 -0.19510685 -0.81583709
vn 0.65414023 0.38271305 -0.65240419
vn 0.693959 0.19510624 -0.69307613
vn 0.26846635 -0.92388773 -0.27268526
vn 0.14750557 -0.9767406 -0.1556277
vn 0.70710701 2.3319782e-07 -0.70710671
vn 0.15562771 0.9767406 -0.14750557
vn 0.69307554 -0.19510667 -0.69395953
vn 0.27268526 0.92388773 -0.26846638
vn 0.65240407 -0.38271284 -0.65414053
vn 0.3947179 0.83148915 -0.39092648
vn 0.58665645 -0.55560702 -0.58918154
vn 0.50158483 0.70713651 -0.49836802
vn 0.49836802 -0.70713651 -0.50158483
vn 0.58918154 0.55560702 -0.58665645
vn 0.39092648 -0.83148921 -0.3947179
vn 0.7674849 -0.38271302 -0.51429331
vn 0.69032872 -0.55560637 -0.46340892
vn 0.46339938 0.83148938 -0.30640909
vn 0.58917403 0.70713669 -0.390937
vn 0.58664477 -0.70713717 -0.39472136
vn 0.69231081 0.5556066 -0.4604423
vn 0.46042168 -0.83148891 -0.31086686
vn 0.76884854 0.38271305 -0.51225245
vn 0.31650594 -0.92388779 -0.21507041
vn 0.81583762 0.19510686 -0.54437333
vn 0.17503266 -0.9767406 -0.12386068
vn 0.8314696 3.1343784e-08 -0.55557036
vn 0.18141493 0.9767406 -0.11430831
vn 0.81514287 -0.19510694 -0.54541308
vn 0.31982094 0.92388767 -0.21010998
vn 0.35238361 -0.92388755 -0.14918961
vn 0.19583312 -0.9767406 -0.087333754
vn 0.90636319 0.19510706 -0.37475199
vn 0.92387927 -2.3695907e-07 -0.38268417
vn 0.20022953 0.97674048 -0.076720469
vn 0.90588504 -0.19510664 -0.37590656
vn 0.35466596 0.92388785 -0.14367731
vn 0.85307097 -0.38271341 -0.35468346
vn 0.51427299 0.83148891 -0.2101181
vn 0.7674697 -0.55560714 -0.3198294
vn 0.65412056 0.70713741 -0.26848283
vn 0.65237981 -0.70713663 -0.27268755
vn 0.76883614 0.55560654 -0.3165316
vn 0.51222044 -0.83148956 -0.21507089
vn 0.8540107 0.38271341 -0.35241494
vn 0.81511867 -0.55560786 -0.1639559
vn 0.69304365 -0.70713669 -0.14017226
vn 0.69393027 0.70713764 -0.13570949
vn 0.81581545 0.55560684 -0.16045605
vn 0.54433697 -0.83148921 -0.11100835
vn 0.90635395 0.38271323 -0.17903396
vn 0.37471712 -0.92388779 -0.077577516
vn 0.96205848 0.1951064 -0.19072782
vn 0.20910887 -0.97674054 -0.047449123
vn 0.98078549 7.4347469e-07 -0.19508946
vn 0.21134944 0.97674048 -0.036183413
vn 0.96181411 -0.19510759 -0.19195454
vn 0.37588146 0.92388773 -0.071725473
vn 0.90587562 -0.38271248 -0.18144014
vn 0.54538357 0.83148915 -0.1057481
vn 0.21434751 0.97674048 0.0057444349
vn 0.21434751 -0.9767406 -0.0057444293
vn 0.99999994 1.2537509e-09 -1.2537509e-09
vn 0.98078185 -0.19510643 -0.0006245143
vn 0.38265172 0.92388779 0.0029830458
vn 0.92386621 -0.38271362 -0.0012282055
vn 0.55553585 0.83148825 0.0026791936
vn 0.83144242 -0.55560791 -0.0017854054
vn 0.70707256 0.70713723 0.0022760588
vn 0.7070725 -0.70713735 -0.0022760662
vn 0.83144248 0.55560791 0.0017854106
vn 0.55553585 -0.83148837 -0.0026791904
vn 0.92386621 0.38271365 0.001228208
vn 0.38265178 -0.92388779 -0.0029830532
vn 0.98078179 0.19510643 0.00062451552
vn 0.69304365 0.70713669 0.14017224
vn 0.81511867 0.55560786 0.16395588
vn 0.69393039 -0.70713764 0.13570952
vn 0.54538357 -0.83148915 0.10574812
vn 0.90587556 0.38271248 0.18144013
vn 0.37588146 -0.92388773 0.071725473
vn 0.96181411 0.19510759 0.19195454
vn 0.21134941 -0.97674048 0.036183409
vn 0.98078549 -7.4598216e-07 0.19508947
vn 0.20910881 0.9767406 0.047448639
vn 0.96205848 -0.1951064 0.19072782
vn 0.37471762 0.92388773 0.07757663
vn 0.90635395 -0.38271323 0.17903396
vn 0.54433703 0.83148921 0.11100835
vn 0.81581545 -0.55560684 0.16045606
vn 0.9238795 1.0443748e-06 0.38268334
vn 0.90636367 -0.1951078 0.37475038
vn 0.1958324 0.97674066 0.087334268
vn 0.35238332 0.92388755 0.14919016
vn 0.85401058 -0.38271335 0.35241488
vn 0.51222116 0.83148915 0.21507053
vn 0.76883614 -0.55560654 0.3165316
vn 0.65237981 0.70713663 0.27268755
vn 0.65412062 -0.70713735 0.26848283
vn 0.7674697 0.55560714 0.31982937
vn 0.51427293 -0.83148891 0.21011811
vn 0.85307103 0.38271412 0.35468256
vn 0.35466596 -0.92388785 0.14367734
vn 0.90588588 0.19510582 0.37590516
vn 0.20022953 -0.97674048 0.076720484
vn 0.58917403 -0.70713669 0.39093697
vn 0.46339941 -0.83148938 0.30640915
vn 0.69032878 0.55560631 0.4634088
vn 0.76748383 0.38271469 0.51429379
vn 0.31982094 -0.92388755 0.21010998
vn 0.81514245 0.19510671 0.54541367
vn 0.18141493 -0.9767406 0.11430831
vn 0.83146912 2.1439143e-07 0.55557096
vn 0.17503266 0.9767406 0.12386068
vn 0.81583726 -0.19510685 0.54437375
vn 0.31650493 0.92388791 0.21507169
vn 0.76884848 -0.38271478 0.51225132
vn 0.46042144 0.83148867 0.31086785
vn 0.69231075 -0.55560654 0.4604423
vn 0.58664477 0.70713717 0.39472136
vn 0.14750554 0.97674048 0.15562768
vn 0.26846635 0.92388773 0.27268526
vn 0.69395775 -0.19510531 0.6930775
vn 0.65413916 -0.38271403 0.65240467
vn 0.39092648 0.83148915 0.39471796
vn 0.58918154 -0.55560702 0.58665645
vn 0.49836802 0.70713651 0.50158483
vn 0.50158483 -0.70713651 0.49836802
vn 0.58665645 0.55560708 0.58918154
vn 0.39471796 -0.83148915 0.39092648
vn 0.65240425 0.38271308 0.65414029
vn 0.27268526 -0.92388773 0.26846638
vn 0.69307399 0.19510739 0.69396073
vn 0.1556277 -0.9767406 0.14750557
vn 0.7071057 -1.0844949e-06 0.7071079
vn 0.4604423 0.55560654 0.69231081
vn 0.51225245 0.38271305 0.7688486
vn 0.31086686 -0.83148885 0.46042171
vn 0.21507043 -0.92388779 0.31650594
vn 0.54437333 0.19510686 0.81583762
vn 0.12386068 -0.9767406 0.17503268
vn 0.55557036 3.0090032e-08 0.83146948
vn 0.11430831 0.9767406 0.18141493
vn 0.54541308 -0.19510694 0.81514287
vn 0.21011001 0.92388767 0.319821
vn 0.51429331 -0.38271302 0.76748496
vn 0.30640912 0.83148938 0.46339938
vn 0.46340886 -0.55560637 0.69032872
vn 0.39093703 0.70713669 0.58917403
vn 0.39472136 -0.70713723 0.58664477
vn 0.37590656 -0.19510661 0.90588504
vn 0.35468346 -0.38271338 0.85307097
vn 0.14367731 0.92388785 0.35466596
vn 0.2101181 0.83148891 0.51427293
vn 0.31982937 -0.55560714 0.7674697
vn 0.26848286 0.70713741 0.65412062
vn 0.27268755 -0.70713657 0.65237981
vn 0.3165316 0.55560654 0.76883614
vn 0.21507089 -0.83148956 0.51222044
vn 0.35241494 0.38271341 0.8540107
vn 0.14918961 -0.92388755 0.35238361
vn 0.37475201 0.19510707 0.90636319
vn 0.087333739 -0.9767406 0.19583309
vn 0.38268411 -2.3821282e-07 0.92387927
vn 0.076720476 0.97674054 0.20022956
vn 0.11100835 -0.83148921 0.54433703
vn 0.077577516 -0.92388785 0.37471709
vn 0.17903396 0.38271323 0.90635395
vn 0.19072782 0.1951064 0.96205848
vn 0.047449116 -0.97674048 0.20910883
vn 0.19508946 7.4347469e-07 0.98078549
vn 0.036183413 0.97674048 0.21134944
vn 0.19195458 -0.19510761 0.96181422
vn 0.071725473 0.92388773 0.37588146
vn 0.18144013 -0.38271245 0.90587556
vn 0.10574951 0.83148962 0.54538226
vn 0.1639578 -0.55560666 0.81511903
vn 0.13571303 0.70713657 0.6939308
vn 0.14017558 -0.70713729 0.69304234
vn 0.16045606 0.55560696 0.81581539
vn 0.0012282067 -0.38271365 0.92386621
vn 0.0017835136 -0.55560577 0.83144397
vn -0.0026807482 0.8314895 0.55553401
vn -0.0022760627 0.70713729 0.70707256
vn 0.00227607 -0.70713735 0.7070725
vn -0.0017835186 0.55560571 0.83144397
vn 0.0026807408 -0.8314895 0.55553401
vn -0.0012282005 0.38271365 0.92386621
vn 0.0029830516 -0.92388779 0.38265175
vn -0.00062451424 0.19510643 0.98078179
vn 0.0057444293 -0.9767406 0.21434751
vn -1.253751e-09 -1.253751e-09 1
vn -0.0057444358 0.9767406 0.21434751
vn 0.0006245143 -0.19510645 0.98078185
vn -0.0029830453 0.92388779 0.38265169
vn -0.071725488 -0.92388773 0.37588146
vn -0.036183409 -0.97674048 0.21134941
vn -0.19195457 0.19510762 0.96181422
vn -0.19508947 -7.472359e-07 0.98078549
vn -0.047449131 0.97674054 0.20910887
vn -0.19072782 -0.1951064 0.96205848
vn -0.077577516 0.92388785 0.37471709
vn -0.17903396 -0.38271323 0.90635395
vn -0.11100837 0.83148921 0.54433703
vn -0.16045606 -0.55560684 0.81581545
vn -0.14017558 0.70713729 0.69304234
vn -0.13571303 -0.70713657 0.6939308
vn -0.1639578 0.55560672 0.81511897
vn -0.10574953 -0.83148962 0.54538226
vn -0.18144014 0.38271248 0.90587562
vn -0.21507089 0.83148944 0.51222044
vn -0.27268755 0.70713663 0.65237981
vn -0.31653157 -0.55560654 0.76883614
vn -0.26848286 -0.70713741 0.65412062
vn -0.31982937 0.5556072 0.7674697
vn -0.21011811 -0.83148891 0.51427287
vn -0.35468256 0.38271412 0.85307103
vn -0.14367734 -0.92388785 0.35466594
vn -0.3759051 0.19510582 0.90588588
vn -0.076720491 -0.97674054 0.20022956
vn -0.38268334 1.0443748e-06 0.9238795
vn -0.087333769 0.9767406 0.1958331
vn -0.37475038 -0.19510779 0.90636367
vn -0.14918961 0.92388755 0.35238358
vn -0.35241491 -0.38271341 0.8540107
vn -0.54541481 0.19510566 0.81514204
vn -0.55557281 1.2888562e-06 0.83146793
vn -0.12386068 0.9767406 0.17503266
vn -0.11430831 -0.9767406 0.18141493
vn -0.54437375 -0.19510685 0.81583726
vn -0.2150704 0.92388773 0.31650591
vn -0.51225138 -0.38271478 0.76884848
vn -0.31086686 0.83148891 0.46042171
vn -0.4604423 -0.55560654 0.69231081
vn -0.39472136 0.70713723 0.58664477
vn -0.390937 -0.70713669 0.58917403
vn -0.46340886 0.55560637 0.69032872
vn -0.30640912 -0.83148938 0.46339941
vn -0.51429379 0.38271472 0.76748377
vn -0.21011001 -0.92388767 0.31982097
vn -0.58665645 -0.55560702 0.58918154
vn -0.49836802 -0.70713651 0.50158483
vn -0.50158489 0.70713651 0.49836802
vn -0.58918148 0.55560702 0.58665645
vn -0.39092651 -0.83148915 0.3947179
vn -0.65414047 0.38271284 0.65240413
vn -0.26846635 -0.92388773 0.27268526
vn -0.69396043 0.19510525 0.69307494
vn -0.14750557 -0.9767406 0.1556277
vn -0.70710772 -1.315184e-06 0.70710582
vn -0.15562773 0.9767406 0.14750557
vn -0.69307905 -0.19510275 0.69395709
vn -0.27268526 0.92388773 0.26846638
vn -0.65240473 -0.38271403 0.65413916
vn -0.3947179 0.83148915 0.39092648
vn -0.18141492 0.9767406 0.1143083
vn -0.17503266 -0.9767406 0.12386066
vn -0.83146781 -1.2863492e-06 0.55557305
vn -0.81514186 -0.19510564 0.54541498
vn -0.31982097 0.92388755 0.21010998
vn -0.76748538 -0.38271216 0.51429325
vn -0.46339938 0.83148938 0.30640909
vn -0.69032878 -0.55560631 0.46340883
vn -0.58917397 0.70713669 0.390937
vn -0.58664471 -0.70713723 0.39472136
vn -0.69231081 0.55560654 0.4604423
vn -0.46042168 -0.83148891 0.31086686
vn -0.76884848 0.38271222 0.51225317
vn -0.31650594 -0.92388779 0.21507043
vn -0.81583709 0.19510683 0.54437405
vn -0.65412194 0.70713639 0.26848164
vn -0.76883656 0.55560797 0.31652829
vn -0.65237981 -0.70713735 0.27268556
vn -0.51222217 -0.83148921 0.21506794
vn -0.8540107 0.38271344 0.35241494
vn -0.35238358 -0.92388755 0.14918959
vn -0.90636271 0.19510642 0.37475336
vn -0.19583309 -0.9767406 0.087333739
vn -0.92387897 4.5887319e-07 0.3826848
vn -0.20022956 0.97674054 0.076720476
vn -0.90588439 -0.19510734 0.37590778
vn -0.35466596 0.92388785 0.14367732
vn -0.85307103 -0.38271415 0.35468248
vn -0.51427299 0.83148891 0.2101181
vn -0.76747161 -0.55560625 0.31982648
vn -0.98078573 -9.5661267e-07 0.19508775
vn -0.96181512 -0.1951061 0.19195122
vn -0.21134944 0.97674048 0.036183413
vn -0.37588146 0.92388779 0.071725473
vn -0.90587413 -0.38271528 0.18144169
vn -0.54538357 0.83148915 0.1057481
vn -0.81511867 -0.5556078 0.16395602
vn -0.69393182 0.70713574 0.13571145
vn -0.69304377 -0.70713633 0.14017273
vn -0.81581539 0.55560684 0.16045617
vn -0.54433703 -0.83148926 0.11100847
vn -0.90635413 0.38271448 0.17903043
vn -0.37471882 -0.92388725 0.077576391
vn -0.96205878 0.1951081 0.19072439
vn -0.20910887 -0.97674054 0.047449123
vn -0.70707268 -0.70713717 0.0022758611
vn -0.55553508 -0.83148873 0.0026790379
vn -0.83144218 0.55560839 -0.0017852619
vn -0.92386693 0.38271198 -0.0012247644
vn -0.38265246 -0.92388755 0.0029846032
vn -0.98078191 0.19510645 -0.00062451477
vn -0.21434751 -0.9767406 0.0057444293
vn -1 1.2537514e-09 -1.2537514e-09
vn -0.21434751 0.9767406 -0.0057444368
vn -0.98078191 -0.19510645 0.00062451104
vn -0.38265169 0.92388779 -0.0029830455
vn -0.92386693 -0.38271201 0.0012247657
vn -0.55553585 0.83148825 -0.0026791929
vn -0.83144218 -0.55560839 0.0017852584
vn -0.70707351 0.70713639 -0.0022777468
vn -0.96205837 -0.19510666 -0.19072762
vn -0.90635413 -0.38271448 -0.17903043
vn -0.37471709 0.92388785 -0.077577509
vn -0.54433697 0.83148921 -0.11100835
vn -0.81581539 -0.55560684 -0.16045618
vn -0.69304574 0.70713478 -0.1401711
vn -0.69393075 -0.70713735 -0.13570929
vn -0.81511867 0.5556078 -0.163956
vn -0.54538351 -0.83148909 -0.10574824
vn -0.90587437 0.38271382 -0.18144339
vn -0.37588263 -0.92388707 -0.071727209
vn -0.96181417 0.19510768 -0.19195426
vn -0.21134941 -0.97674048 -0.036183406
vn -0.98078543 -6.343987e-07 -0.19508934
vn -0.20910887 0.97674054 -0.047449131
vn -0.51427311 -0.83148962 -0.2101147
vn -0.35466722 -0.92388767 -0.14367624
vn -0.85307264 0.38271064 -0.35468239
vn -0.90588355 0.19510815 -0.37590948
vn -0.20022956 -0.97674054 -0.076720491
vn -0.92387855 -1.2562598e-06 -0.38268566
vn -0.1958331 0.9767406 -0.087333761
vn -0.90636218 -0.19510569 -0.37475514
vn -0.35238355 0.92388755 -0.14918961
vn -0.85401118 -0.38271064 -0.35241678
vn -0.51222038 0.83148944 -0.21507086
vn -0.76883656 -0.55560797 -0.31652829
vn -0.65237975 0.70713663 -0.27268755
vn -0.65412194 -0.70713639 -0.26848161
vn -0.76747155 0.55560625 -0.31982648
vn -0.31650594 0.92388779 -0.21507043
vn -0.46042168 0.83148885 -0.31086686
vn -0.76884991 -0.38270921 -0.51225328
vn -0.69231081 -0.5556066 -0.4604423
vn -0.58664471 0.70713717 -0.3947213
vn -0.58917403 -0.70713669 -0.390937
vn -0.69032878 0.55560631 -0.46340883
vn -0.46339938 -0.83148938 -0.30640912
vn -0.76748657 0.38271046 -0.51429278
vn -0.31982097 -0.92388755 -0.21010998
vn -0.81514406 0.19510435 -0.54541224
vn -0.18141493 -0.9767406 -0.11430831
vn -0.83146876 2.7557471e-06 -0.55557144
vn -0.17503266 0.9767406 -0.12386068
vn -0.81583881 -0.19510834 -0.54437107
vn -0.65240359 0.38271189 -0.65414155
vn -0.69307703 0.19510418 -0.69395864
vn -0.27268526 -0.92388773 -0.26846635
vn -0.15562771 -0.9767406 -0.14750557
vn -0.70710677 3.7612535e-09 -0.70710677
vn -0.14750557 0.9767406 -0.15562773
vn -0.69395864 -0.1951042 -0.69307703
vn -0.26846632 0.92388773 -0.27268523
vn -0.6541416 -0.38271192 -0.65240359
vn -0.39092648 0.83148915 -0.3947179
vn -0.58918148 -0.55560708 -0.58665651
vn -0.49836802 0.70713651 -0.50158483
vn -0.50158483 -0.70713651 -0.49836802
vn -0.58665651 0.55560708 -0.58918154
vn -0.3947179 -0.83148915 -0.39092648
vn -0.51429045 -0.38270932 -0.76748872
vn -0.46340883 -0.55560631 -0.69032878
vn -0.30640909 0.83148938 -0.46339938
vn -0.39093697 0.70713669 -0.58917397
vn -0.39472136 -0.70713723 -0.58664471
vn -0.46044144 0.55560547 -0.6923123
vn -0.31086501 -0.83148921 -0.46042216
vn -0.51225048 0.38271064 -0.7688511
vn -0.215068 -0.92388773 -0.31650776
vn -0.54436994 0.19510691 -0.81583995
vn -0.12386066 -0.9767406 -0.17503266
vn -0.55556905 -1.2876036e-06 -0.83147043
vn -0.11430741 0.97674048 -0.18141618
vn -0.54541081 -0.19510578 -0.81514466
vn -0.21010703 0.92388797 -0.31982177
vn -0.14918984 -0.92388755 -0.35238346
vn -0.087332882 -0.97674042 -0.19583465
vn -0.37475067 0.19510566 -0.90636402
vn -0.38268134 1.2951252e-06 -0.9238804
vn -0.076722264 0.97674036 -0.20022996
vn -0.37590525 -0.19510819 -0.90588528
vn -0.14367647 0.92388761 -0.35466713
vn -0.35467982 -0.38270947 -0.85307419
vn -0.21011253 0.8314904 -0.51427263
vn -0.31982577 -0.55560398 -0.76747358
vn -0.26848167 0.70713645 -0.65412199
vn -0.27268553 -0.70713723 -0.65237975
vn -0.31652918 0.5556044 -0.76883876
vn -0.21506932 -0.83149004 -0.5122202
vn -0.35241264 0.38271075 -0.85401279
vn -0.10575003 0.83148956 -0.54538256
vn -0.13570929 0.70713735 -0.69393069
vn -0.16395327 -0.55560327 -0.81512225
vn -0.14017272 -0.70713627 -0.69304377
vn -0.16045806 0.5556044 -0.8158167
vn -0.11100635 -0.83148974 -0.54433674
vn -0.17903736 0.38271186 -0.90635377
vn -0.077576004 -0.92388767 -0.3747181
vn -0.19073278 0.19510625 -0.96205741
vn -0.047450751 -0.97674042 -0.20910913
vn -0.19509438 7.6102674e-07 -0.98078442
vn -0.036183413 0.97674048 -0.21134941
vn -0.19195947 -0.19510742 -0.96181315
vn -0.07173048 0.92388701 -0.37588221
vn -0.18144344 -0.38271385 -0.90587437

# Mesh '' with 960 faces
f  1//1 2//2 3//3
f  4//4 1//1 3//3
f  5//5 6//6 7//7
f  8//8 5//5 7//7
f  9//9 10//10 11//11
f  12//12 4//4 3//3
f  8//8 7//7 13//13
f  14//14 8//8 13//13
f  9//9 11//11 15//15
f  16//16 9//9 15//15
f  14//14 13//13 17//17
f  18//18 14//14 17//17
f  16//16 15//15 19//19
f  20//20 16//16 19//19
f  18//18 17//17 21//21
f  22//22 18//18 21//21
f  20//20 19//19 23//23
f  24//24 20//20 23//23
f  22//22 21//21 25//25
f  26//26 22//22 25//25
f  24//24 23//23 27//27
f  28//28 24//24 27//27
f  26//26 25//25 29//29
f  30//30 26//26 29//29
f  28//28 27//27 31//31
f  32//32 28//28 31//31
f  30//30 29//29 2//2
f  1//1 30//30 2//2
f  32//32 31//31 6//6
f  5//5 32//32 6//6
f  29//29 33//33 34//34
f  2//2 29//29 34//34
f  31//31 35//35 36//36
f  6//6 31//31 36//36
f  2//2 34//34 37//37
f  3//3 2//2 37//37
f  6//6 36//36 38//38
f  7//7 6//6 38//38
f  11//11 10//10 39//39
f  12//12 3//3 37//37
f  7//7 38//38 40//40
f  13//13 7//7 40//40
f  11//11 39//39 41//41
f  15//15 11//11 41//41
f  13//13 40//40 42//42
f  17//17 13//13 42//42
f  15//15 41//41 43//43
f  19//19 15//15 43//43
f  17//17 42//42 44//44
f  21//21 17//17 44//44
f  19//19 43//43 45//45
f  23//23 19//19 45//45
f  21//21 44//44 46//46
f  25//25 21//21 46//46
f  23//23 45//45 47//47
f  27//27 23//23 47//47
f  25//25 46//46 33//33
f  29//29 25//25 33//33
f  27//27 47//47 35//35
f  31//31 27//27 35//35
f  41//41 48//48 49//49
f  43//43 41//41 49//49
f  42//42 50//50 51//51
f  44//44 42//42 51//51
f  43//43 49//49 52//52
f  45//45 43//43 52//52
f  44//44 51//51 53//53
f  46//46 44//44 53//53
f  45//45 52//52 54//54
f  47//47 45//45 54//54
f  46//46 53//53 55//55
f  33//33 46//46 55//55
f  47//47 54//54 56//56
f  35//35 47//47 56//56
f  33//33 55//55 57//57
f  34//34 33//33 57//57
f  35//35 56//56 58//58
f  36//36 35//35 58//58
f  34//34 57//57 59//59
f  37//37 34//34 59//59
f  36//36 58//58 60//60
f  38//38 36//36 60//60
f  39//39 10//10 61//61
f  12//12 37//37 59//59
f  38//38 60//60 62//62
f  40//40 38//38 62//62
f  39//39 61//61 48//48
f  41//41 39//39 48//48
f  40//40 62//62 50//50
f  42//42 40//40 50//50
f  56//56 63//63 64//64
f  58//58 56//56 64//64
f  57//57 65//65 66//66
f  59//59 57//57 66//66
f  58//58 64//64 67//67
f  60//60 58//58 67//67
f  61//61 10//10 68//68
f  12//12 59//59 66//66
f  60//60 67//67 69//69
f  62//62 60//60 69//69
f  61//61 68//68 70//70
f  48//48 61//61 70//70
f  62//62 69//69 71//71
f  50//50 62//62 71//71
f  48//48 70//70 72//72
f  49//49 48//48 72//72
f  50//50 71//71 73//73
f  51//51 50//50 73//73
f  49//49 72//72 74//74
f  52//52 49//49 74//74
f  51//51 73//73 75//75
f  53//53 51//51 75//75
f  52//52 74//74 76//76
f  54//54 52//52 76//76
f  53//53 75//75 77//77
f  55//55 53//53 77//77
f  54//54 76//76 63//63
f  56//56 54//54 63//63
f  55//55 77//77 65//65
f  57//57 55//55 65//65
f  71//71 78//78 79//79
f  73//73 71//71 79//79
f  72//72 80//80 81//81
f  74//74 72//72 81//81
f  73//73 79//79 82//82
f  75//75 73//73 82//82
f  74//74 81//81 83//83
f  76//76 74//74 83//83
f  75//75 82//82 84//84
f  77//77 75//75 84//84
f  76//76 83//83 85//85
f  63//63 76//76 85//85
f  77//77 84//84 86//86
f  65//65 77//77 86//86
f  63//63 85//85 87//87
f  64//64 63//63 87//87
f  65//65 86//86 88//88
f  66//66 65//65 88//88
f  64//64 87//87 89//89
f  67//67 64//64 89//89
f  68//68 10//10 90//90
f  12//12 66//66 88//88
f  67//67 89//89 91//91
f  69//69 67//67 91//91
f  68//68 90//90 92//92
f  70//70 68//68 92//92
f  69//69 91//91 78//78
f  71//71 69//69 78//78
f  70//70 92//92 80//80
f  72//72 70//70 80//80
f  86//86 93//93 94//94
f  88//88 86//86 94//94
f  87//87 95//95 96//96
f  89//89 87//87 96//96
f  90//90 10//10 97//97
f  12//12 88//88 94//94
f  89//89 96//96 98//98
f  91//91 89//89 98//98
f  90//90 97//97 99//99
f  92//92 90//90 99//99
f  91//91 98//98 100//100
f  78//78 91//91 100//100
f  92//92 99//99 101//101
f  80//80 92//92 101//101
f  78//78 100//100 102//102
f  79//79 78//78 102//102
f  80//80 101//101 103//103
f  81//81 80//80 103//103
f  79//79 102//102 104//104
f  82//82 79//79 104//104
f  81//81 103//103 105//105
f  83//83 81//81 105//105
f  82//82 104//104 106//106
f  84//84 82//82 106//106
f  83//83 105//105 107//107
f  85//85 83//83 107//107
f  84//84 106//106 93//93
f  86//86 84//84 93//93
f  85//85 107//107 95//95
f  87//87 85//85 95//95
f  102//102 108//108 109//109
f  104//104 102//102 109//109
f  103//103 110//110 111//111
f  105//105 103//103 111//111
f  104//104 109//109 112//112
f  106//106 104//104 112//112
f  105//105 111//111 113//113
f  107//107 105//105 113//113
f  106//106 112//112 114//114
f  93//93 106//106 114//114
f  107//107 113//113 115//115
f  95//95 107//107 115//115
f  93//93 114//114 116//116
f  94//94 93//93 116//116
f  95//95 115//115 117//117
f  96//96 95//95 117//117
f  97//97 10//10 118//118
f  12//12 94//94 116//116
f  96//96 117//117 119//119
f  98//98 96//96 119//119
f  97//97 118//118 120//120
f  99//99 97//97 120//120
f  98//98 119//119 121//121
f  100//100 98//98 121//121
f  99//99 120//120 122//122
f  101//101 99//99 122//122
f  100//100 121//121 108//108
f  102//102 100//100 108//108
f  101//101 122//122 110//110
f  103//103 101//101 110//110
f  118//118 10//10 123//123
f  12//12 116//116 124//124
f  117//117 125//125 126//126
f  119//119 117//117 126//126
f  118//118 123//123 127//127
f  120//120 118//118 127//127
f  119//119 126//126 128//128
f  121//121 119//119 128//128
f  120//120 127//127 129//129
f  122//122 120//120 129//129
f  121//121 128//128 130//130
f  108//108 121//121 130//130
f  122//122 129//129 131//131
f  110//110 122//122 131//131
f  108//108 130//130 132//132
f  109//109 108//108 132//132
f  110//110 131//131 133//133
f  111//111 110//110 133//133
f  109//109 132//132 134//134
f  112//112 109//109 134//134
f  111//111 133//133 135//135
f  113//113 111//111 135//135
f  112//112 134//134 136//136
f  114//114 112//112 136//136
f  113//113 135//135 137//137
f  115//115 113//113 137//137
f  114//114 136//136 124//124
f  116//116 114//114 124//124
f  115//115 137//137 125//125
f  117//117 115//115 125//125
f  131//131 138//138 139//139
f  133//133 131//131 139//139
f  132//132 140//140 141//141
f  134//134 132//132 141//141
f  133//133 139//139 142//142
f  135//135 133//133 142//142
f  134//134 141//141 143//143
f  136//136 134//134 143//143
f  135//135 142//142 144//144
f  137//137 135//135 144//144
f  136//136 143//143 145//145
f  124//124 136//136 145//145
f  137//137 144//144 146//146
f  125//125 137//137 146//146
f  123//123 10//10 147//147
f  12//12 124//124 145//145
f  125//125 146//146 148//148
f  126//126 125//125 148//148
f  123//123 147//147 149//149
f  127//127 123//123 149//149
f  126//126 148//148 150//150
f  128//128 126//126 150//150
f  127//127 149//149 151//151
f  129//129 127//127 151//151
f  128//128 150//150 152//152
f  130//130 128//128 152//152
f  129//129 151//151 138//138
f  131//131 129//129 138//138
f  130//130 152//152 140//140
f  132//132 130//130 140//140
f  146//146 153//153 154//154
f  148//148 146//146 154//154
f  147//147 155//155 156//156
f  149//149 147//147 156//156
f  148//148 154//154 157//157
f  150//150 148//148 157//157
f  149//149 156//156 158//158
f  151//151 149//149 158//158
f  150//150 157//157 159//159
f  152//152 150//150 159//159
f  151//151 158//158 160//160
f  138//138 151//151 160//160
f  152//152 159//159 161//161
f  140//140 152//152 161//161
f  138//138 160//160 162//162
f  139//139 138//138 162//162
f  140//140 161//161 163//163
f  141//141 140//140 163//163
f  139//139 162//162 164//164
f  142//142 139//139 164//164
f  141//141 163//163 165//165
f  143//143 141//141 165//165
f  142//142 164//164 166//166
f  144//144 142//142 166//166
f  143//143 165//165 167//167
f  145//145 143//143 167//167
f  144//144 166//166 153//153
f  146//146 144//144 153//153
f  147//147 10//10 155//155
f  12//12 145//145 167//167
f  161//161 168//168 169//169
f  163//163 161//161 169//169
f  162//162 170//170 171//171
f  164//164 162//162 171//171
f  163//163 169//169 172//172
f  165//165 163//163 172//172
f  164//164 171//171 173//173
f  166//166 164//164 173//173
f  165//165 172//172 174//174
f  167//167 165//165 174//174
f  166//166 173//173 175//175
f  153//153 166//166 175//175
f  155//155 10//10 176//176
f  12//12 167//167 174//174
f  153//153 175//175 177//177
f  154//154 153//153 177//177
f  155//155 176//176 178//178
f  156//156 155//155 178//178
f  154//154 177//177 179//179
f  157//157 154//154 179//179
f  156//156 178//178 180//180
f  158//158 156//156 180//180
f  157//157 179//179 181//181
f  159//159 157//157 181//181
f  158//158 180//180 182//182
f  160//160 158//158 182//182
f  159//159 181//181 168//168
f  161//161 159//159 168//168
f  160//160 182//182 170//170
f  162//162 160//160 170//170
f  176//176 183//183 184//184
f  178//178 176//176 184//184
f  177//177 185//185 186//186
f  179//179 177//177 186//186
f  178//178 184//184 187//187
f  180//180 178//178 187//187
f  179//179 186//186 188//188
f  181//181 179//179 188//188
f  180//180 187//187 189//189
f  182//182 180//180 189//189
f  181//181 188//188 190//190
f  168//168 181//181 190//190
f  182//182 189//189 191//191
f  170//170 182//182 191//191
f  168//168 190//190 192//192
f  169//169 168//168 192//192
f  170//170 191//191 193//193
f  171//171 170//170 193//193
f  169//169 192//192 194//194
f  172//172 169//169 194//194
f  171//171 193//193 195//195
f  173//173 171//171 195//195
f  172//172 194//194 196//196
f  174//174 172//172 196//196
f  173//173 195//195 197//197
f  175//175 173//173 197//197
f  176//176 10//10 183//183
f  12//12 174//174 196//196
f  175//175 197//197 185//185
f  177//177 175//175 185//185
f  191//191 198//198 199//199
f  193//193 191//191 199//199
f  192//192 200//200 201//201
f  194//194 192//192 201//201
f  193//193 199//199 202//202
f  195//195 193//193 202//202
f  194//194 201//201 203//203
f  196//196 194//194 203//203
f  195//195 202//202 204//204
f  197//197 195//195 204//204
f  183//183 10//10 205//205
f  12//12 196//196 203//203
f  197//197 204//204 206//206
f  185//185 197//197 206//206
f  183//183 205//205 207//207
f  184//184 183//183 207//207
f  185//185 206//206 208//208
f  186//186 185//185 208//208
f  184//184 207//207 209//209
f  187//187 184//184 209//209
f  186//186 208//208 210//210
f  188//188 186//186 210//210
f  187//187 209//209 211//211
f  189//189 187//187 211//211
f  188//188 210//210 212//212
f  190//190 188//188 212//212
f  189//189 211//211 198//198
f  191//191 189//189 198//198
f  190//190 212//212 200//200
f  192//192 190//190 200//200
f  206//206 213//213 214//214
f  208//208 206//206 214//214
f  207//207 215//215 216//216
f  209//209 207//207 216//216
f  208//208 214//214 217//217
f  210//210 208//208 217//217
f  209//209 216//216 218//218
f  211//211 209//209 218//218
f  210//210 217//217 219//219
f  212//212 210//210 219//219
f  211//211 218//218 220//220
f  198//198 211//211 220//220
f  212//212 219//219 221//221
f  200//200 212//212 221//221
f  198//198 220//220 222//222
f  199//199 198//198 222//222
f  200//200 221//221 223//223
f  201//201 200//200 223//223
f  199//199 222//222 224//224
f  202//202 199//199 224//224
f  201//201 223//223 225//225
f  203//203 201//201 225//225
f  202//202 224//224 226//226
f  204//204 202//202 226//226
f  205//205 10//10 227//227
f  12//12 203//203 225//225
f  204//204 226//226 213//213
f  206//206 204//204 213//213
f  205//205 227//227 215//215
f  207//207 205//205 215//215
f  221//221 228//228 229//229
f  223//223 221//221 229//229
f  222//222 230//230 231//231
f  224//224 222//222 231//231
f  223//223 229//229 232//232
f  225//225 223//223 232//232
f  224//224 231//231 233//233
f  226//226 224//224 233//233
f  227//227 10//10 234//234
f  12//12 225//225 232//232
f  226//226 233//233 235//235
f  213//213 226//226 235//235
f  227//227 234//234 236//236
f  215//215 227//227 236//236
f  213//213 235//235 237//237
f  214//214 213//213 237//237
f  215//215 236//236 238//238
f  216//216 215//215 238//238
f  214//214 237//237 239//239
f  217//217 214//214 239//239
f  216//216 238//238 240//240
f  218//218 216//216 240//240
f  217//217 239//239 241//241
f  219//219 217//217 241//241
f  218//218 240//240 242//242
f  220//220 218//218 242//242
f  219//219 241//241 228//228
f  221//221 219//219 228//228
f  220//220 242//242 230//230
f  222//222 220//220 230//230
f  237//237 243//243 244//244
f  239//239 237//237 244//244
f  238//238 245//245 246//246
f  240//240 238//238 246//246
f  239//239 244//244 247//247
f  241//241 239//239 247//247
f  240//240 246//246 248//248
f  242//242 240//240 248//248
f  241//241 247//247 249//249
f  228//228 241//241 249//249
f  242//242 248//248 250//250
f  230//230 242//242 250//250
f  228//228 249//249 251//251
f  229//229 228//228 251//251
f  230//230 250//250 252//252
f  231//231 230//230 252//252
f  229//229 251//251 253//253
f  232//232 229//229 253//253
f  231//231 252//252 254//254
f  233//233 231//231 254//254
f  234//234 10//10 255//255
f  12//12 232//232 253//253
f  233//233 254//254 256//256
f  235//235 233//233 256//256
f  234//234 255//255 257//257
f  236//236 234//234 257//257
f  235//235 256//256 243//243
f  237//237 235//235 243//243
f  236//236 257//257 245//245
f  238//238 236//236 245//245
f  251//251 258//258 259//259
f  253//253 251//251 259//259
f  252//252 260//260 261//261
f  254//254 252//252 261//261
f  255//255 10//10 262//262
f  12//12 253//253 259//259
f  254//254 261//261 263//263
f  256//256 254//254 263//263
f  255//255 262//262 264//264
f  257//257 255//255 264//264
f  256//256 263//263 265//265
f  243//243 256//256 265//265
f  257//257 264//264 266//266
f  245//245 257//257 266//266
f  243//243 265//265 267//267
f  244//244 243//243 267//267
f  245//245 266//266 268//268
f  246//246 245//245 268//268
f  244//244 267//267 269//269
f  247//247 244//244 269//269
f  246//246 268//268 270//270
f  248//248 246//246 270//270
f  247//247 269//269 271//271
f  249//249 247//247 271//271
f  248//248 270//270 272//272
f  250//250 248//248 272//272
f  249//249 271//271 258//258
f  251//251 249//249 258//258
f  250//250 272//272 260//260
f  252//252 250//250 260//260
f  266//266 273//273 274//274
f  268//268 266//266 274//274
f  267//267 275//275 276//276
f  269//269 267//267 276//276
f  268//268 274//274 277//277
f  270//270 268//268 277//277
f  269//269 276//276 278//278
f  271//271 269//269 278//278
f  270//270 277//277 279//279
f  272//272 270//270 279//279
f  271//271 278//278 280//280
f  258//258 271//271 280//280
f  272//272 279//279 281//281
f  260//260 272//272 281//281
f  258//258 280//280 282//282
f  259//259 258//258 282//282
f  260//260 281//281 283//283
f  261//261 260//260 283//283
f  262//262 10//10 284//284
f  12//12 259//259 282//282
f  261//261 283//283 285//285
f  263//263 261//261 285//285
f  262//262 284//284 286//286
f  264//264 262//262 286//286
f  263//263 285//285 287//287
f  265//265 263//263 287//287
f  264//264 286//286 273//273
f  266//266 264//264 273//273
f  265//265 287//287 275//275
f  267//267 265//265 275//275
f  281//281 288//288 289//289
f  283//283 281//281 289//289
f  284//284 10//10 290//290
f  12//12 282//282 291//291
f  283//283 289//289 292//292
f  285//285 283//283 292//292
f  284//284 290//290 293//293
f  286//286 284//284 293//293
f  285//285 292//292 294//294
f  287//287 285//285 294//294
f  286//286 293//293 295//295
f  273//273 286//286 295//295
f  287//287 294//294 296//296
f  275//275 287//287 296//296
f  273//273 295//295 297//297
f  274//274 273//273 297//297
f  275//275 296//296 298//298
f  276//276 275//275 298//298
f  274//274 297//297 299//299
f  277//277 274//274 299//299
f  276//276 298//298 300//300
f  278//278 276//276 300//300
f  277//277 299//299 301//301
f  279//279 277//277 301//301
f  278//278 300//300 302//302
f  280//280 278//278 302//302
f  279//279 301//301 288//288
f  281//281 279//279 288//288
f  280//280 302//302 291//291
f  282//282 280//280 291//291
f  296//296 303//303 304//304
f  298//298 296//296 304//304
f  297//297 305//305 306//306
f  299//299 297//297 306//306
f  298//298 304//304 307//307
f  300//300 298//298 307//307
f  299//299 306//306 308//308
f  301//301 299//299 308//308
f  300//300 307//307 309//309
f  302//302 300//300 309//309
f  301//301 308//308 310//310
f  288//288 301//301 310//310
f  302//302 309//309 311//311
f  291//291 302//302 311//311
f  288//288 310//310 312//312
f  289//289 288//288 312//312
f  290//290 10//10 313//313
f  12//12 291//291 311//311
f  289//289 312//312 314//314
f  292//292 289//289 314//314
f  290//290 313//313 315//315
f  293//293 290//290 315//315
f  292//292 314//314 316//316
f  294//294 292//292 316//316
f  293//293 315//315 317//317
f  295//295 293//293 317//317
f  294//294 316//316 303//303
f  296//296 294//294 303//303
f  295//295 317//317 305//305
f  297//297 295//295 305//305
f  313//313 10//10 318//318
f  12//12 311//311 319//319
f  312//312 320//320 321//321
f  314//314 312//312 321//321
f  313//313 318//318 322//322
f  315//315 313//313 322//322
f  314//314 321//321 323//323
f  316//316 314//314 323//323
f  315//315 322//322 324//324
f  317//317 315//315 324//324
f  316//316 323//323 325//325
f  303//303 316//316 325//325
f  317//317 324//324 326//326
f  305//305 317//317 326//326
f  303//303 325//325 327//327
f  304//304 303//303 327//327
f  305//305 326//326 328//328
f  306//306 305//305 328//328
f  304//304 327//327 329//329
f  307//307 304//304 329//329
f  306//306 328//328 330//330
f  308//308 306//306 330//330
f  307//307 329//329 331//331
f  309//309 307//307 331//331
f  308//308 330//330 332//332
f  310//310 308//308 332//332
f  309//309 331//331 319//319
f  311//311 309//309 319//319
f  310//310 332//332 320//320
f  312//312 310//310 320//320
f  326//326 333//333 334//334
f  328//328 326//326 334//334
f  327//327 335//335 336//336
f  329//329 327//327 336//336
f  328//328 334//334 337//337
f  330//330 328//328 337//337
f  329//329 336//336 338//338
f  331//331 329//329 338//338
f  330//330 337//337 339//339
f  332//332 330//330 339//339
f  331//331 338//338 340//340
f  319//319 331//331 340//340
f  332//332 339//339 341//341
f  320//320 332//332 341//341
f  318//318 10//10 342//342
f  12//12 319//319 340//340
f  320//320 341//341 343//343
f  321//321 320//320 343//343
f  318//318 342//342 344//344
f  322//322 318//318 344//344
f  321//321 343//343 345//345
f  323//323 321//321 345//345
f  322//322 344//344 346//346
f  324//324 322//322 346//346
f  323//323 345//345 347//347
f  325//325 323//323 347//347
f  324//324 346//346 333//333
f  326//326 324//324 333//333
f  325//325 347//347 335//335
f  327//327 325//325 335//335
f  341//341 348//348 349//349
f  343//343 341//341 349//349
f  342//342 350//350 351//351
f  344//344 342//342 351//351
f  343//343 349//349 352//352
f  345//345 343//343 352//352
f  344//344 351//351 353//353
f  346//346 344//344 353//353
f  345//345 352//352 354//354
f  347//347 345//345 354//354
f  346//346 353//353 355//355
f  333//333 346//346 355//355
f  347//347 354//354 356//356
f  335//335 347//347 356//356
f  333//333 355//355 357//357
f  334//334 333//333 357//357
f  335//335 356//356 358//358
f  336//336 335//335 358//358
f  334//334 357//357 359//359
f  337//337 334//334 359//359
f  336//336 358//358 360//360
f  338//338 336//336 360//360
f  337//337 359//359 361//361
f  339//339 337//337 361//361
f  338//338 360//360 362//362
f  340//340 338//338 362//362
f  339//339 361//361 348//348
f  341//341 339//339 348//348
f  342//342 10//10 350//350
f  12//12 340//340 362//362
f  356//356 363//363 364//364
f  358//358 356//356 364//364
f  357//357 365//365 366//366
f  359//359 357//357 366//366
f  358//358 364//364 367//367
f  360//360 358//358 367//367
f  359//359 366//366 368//368
f  361//361 359//359 368//368
f  360//360 367//367 369//369
f  362//362 360//360 369//369
f  361//361 368//368 370//370
f  348//348 361//361 370//370
f  350//350 10//10 371//371
f  12//12 362//362 369//369
f  348//348 370//370 372//372
f  349//349 348//348 372//372
f  350//350 371//371 373//373
f  351//351 350//350 373//373
f  349//349 372//372 374//374
f  352//352 349//349 374//374
f  351//351 373//373 375//375
f  353//353 351//351 375//375
f  352//352 374//374 376//376
f  354//354 352//352 376//376
f  353//353 375//375 377//377
f  355//355 353//353 377//377
f  354//354 376//376 363//363
f  356//356 354//354 363//363
f  355//355 377//377 365//365
f  357//357 355//355 365//365
f  372//372 378//378 379//379
f  374//374 372//372 379//379
f  373//373 380//380 381//381
f  375//375 373//373 381//381
f  374//374 379//379 382//382
f  376//376 374//374 382//382
f  375//375 381//381 383//383
f  377//377 375//375 383//383
f  376//376 382//382 384//384
f  363//363 376//376 384//384
f  377//377 383//383 385//385
f  365//365 377//377 385//385
f  363//363 384//384 386//386
f  364//364 363//363 386//386
f  365//365 385//385 387//387
f  366//366 365//365 387//387
f  364//364 386//386 388//388
f  367//367 364//364 388//388
f  366//366 387//387 389//389
f  368//368 366//366 389//389
f  367//367 388//388 390//390
f  369//369 367//367 390//390
f  368//368 389//389 391//391
f  370//370 368//368 391//391
f  371//371 10//10 392//392
f  12//12 369//369 390//390
f  370//370 391//391 378//378
f  372//372 370//370 378//378
f  371//371 392//392 380//380
f  373//373 371//371 380//380
f  386//386 393//393 394//394
f  388//388 386//386 394//394
f  387//387 395//395 396//396
f  389//389 387//387 396//396
f  388//388 394//394 397//397
f  390//390 388//388 397//397
f  389//389 396//396 398//398
f  391//391 389//389 398//398
f  392//392 10//10 399//399
f  12//12 390//390 397//397
f  391//391 398//398 400//400
f  378//378 391//391 400//400
f  392//392 399//399 401//401
f  380//380 392//392 401//401
f  378//378 400//400 402//402
f  379//379 378//378 402//402
f  380//380 401//401 403//403
f  381//381 380//380 403//403
f  379//379 402//402 404//404
f  382//382 379//379 404//404
f  381//381 403//403 405//405
f  383//383 381//381 405//405
f  382//382 404//404 406//406
f  384//384 382//382 406//406
f  383//383 405//405 407//407
f  385//385 383//383 407//407
f  384//384 406//406 393//393
f  386//386 384//384 393//393
f  385//385 407//407 395//395
f  387//387 385//385 395//395
f  401//401 408//408 409//409
f  403//403 401//401 409//409
f  402//402 410//410 411//411
f  404//404 402//402 411//411
f  403//403 409//409 412//412
f  405//405 403//403 412//412
f  404//404 411//411 413//413
f  406//406 404//404 413//413
f  405//405 412//412 414//414
f  407//407 405//405 414//414
f  406//406 413//413 415//415
f  393//393 406//406 415//415
f  407//407 414//414 416//416
f  395//395 407//407 416//416
f  393//393 415//415 417//417
f  394//394 393//393 417//417
f  395//395 416//416 418//418
f  396//396 395//395 418//418
f  394//394 417//417 419//419
f  397//397 394//394 419//419
f  396//396 418//418 420//420
f  398//398 396//396 420//420
f  399//399 10//10 421//421
f  12//12 397//397 419//419
f  398//398 420//420 422//422
f  400//400 398//398 422//422
f  399//399 421//421 408//408
f  401//401 399//399 408//408
f  400//400 422//422 410//410
f  402//402 400//400 410//410
f  416//416 423//423 424//424
f  418//418 416//416 424//424
f  417//417 425//425 426//426
f  419//419 417//417 426//426
f  418//418 424//424 427//427
f  420//420 418//418 427//427
f  421//421 10//10 428//428
f  12//12 419//419 426//426
f  420//420 427//427 429//429
f  422//422 420//420 429//429
f  421//421 428//428 430//430
f  408//408 421//421 430//430
f  422//422 429//429 431//431
f  410//410 422//422 431//431
f  408//408 430//430 432//432
f  409//409 408//408 432//432
f  410//410 431//431 433//433
f  411//411 410//410 433//433
f  409//409 432//432 434//434
f  412//412 409//409 434//434
f  411//411 433//433 435//435
f  413//413 411//411 435//435
f  412//412 434//434 436//436
f  414//414 412//412 436//436
f  413//413 435//435 437//437
f  415//415 413//413 437//437
f  414//414 436//436 423//423
f  416//416 414//414 423//423
f  415//415 437//437 425//425
f  417//417 415//415 425//425
f  431//431 438//438 439//439
f  433//433 431//431 439//439
f  432//432 440//440 441//441
f  434//434 432//432 441//441
f  433//433 439//439 442//442
f  435//435 433//433 442//442
f  434//434 441//441 443//443
f  436//436 434//434 443//443
f  435//435 442//442 444//444
f  437//437 435//435 444//444
f  436//436 443//443 445//445
f  423//423 436//436 445//445
f  437//437 444//444 446//446
f  425//425 437//437 446//446
f  423//423 445//445 447//447
f  424//424 423//423 447//447
f  425//425 446//446 448//448
f  426//426 425//425 448//448
f  424//424 447//447 449//449
f  427//427 424//424 449//449
f  428//428 10//10 450//450
f  12//12 426//426 448//448
f  427//427 449//449 451//451
f  429//429 427//427 451//451
f  428//428 450//450 452//452
f  430//430 428//428 452//452
f  429//429 451//451 438//438
f  431//431 429//429 438//438
f  430//430 452//452 440//440
f  432//432 430//430 440//440
f  446//446 453//453 454//454
f  448//448 446//446 454//454
f  447//447 455//455 456//456
f  449//449 447//447 456//456
f  450//450 10//10 457//457
f  12//12 448//448 454//454
f  449//449 456//456 458//458
f  451//451 449//449 458//458
f  450//450 457//457 459//459
f  452//452 450//450 459//459
f  451//451 458//458 460//460
f  438//438 451//451 460//460
f  452//452 459//459 461//461
f  440//440 452//452 461//461
f  438//438 460//460 462//462
f  439//439 438//438 462//462
f  440//440 461//461 463//463
f  441//441 440//440 463//463
f  439//439 462//462 464//464
f  442//442 439//439 464//464
f  441//441 463//463 465//465
f  443//443 441//441 465//465
f  442//442 464//464 466//466
f  444//444 442//442 466//466
f  443//443 465//465 467//467
f  445//445 443//443 467//467
f  444//444 466//466 453//453
f  446//446 444//444 453//453
f  445//445 467//467 455//455
f  447//447 445//445 455//455
f  461//461 468//468 469//469
f  463//463 461//461 469//469
f  462//462 470//470 471//471
f  464//464 462//462 471//471
f  463//463 469//469 472//472
f  465//465 463//463 472//472
f  464//464 471//471 473//473
f  466//466 464//464 473//473
f  465//465 472//472 474//474
f  467//467 465//465 474//474
f  466//466 473//473 475//475
f  453//453 466//466 475//475
f  467//467 474//474 476//476
f  455//455 467//467 476//476
f  453//453 475//475 477//477
f  454//454 453//453 477//477
f  455//455 476//476 478//478
f  456//456 455//455 478//478
f  457//457 10//10 479//479
f  12//12 454//454 477//477
f  456//456 478//478 480//480
f  458//458 456//456 480//480
f  457//457 479//479 481//481
f  459//459 457//457 481//481
f  458//458 480//480 482//482
f  460//460 458//458 482//482
f  459//459 481//481 468//468
f  461//461 459//459 468//468
f  460//460 482//482 470//470
f  462//462 460//460 470//470
f  476//476 5//5 8//8
f  478//478 476//476 8//8
f  479//479 10//10 9//9
f  12//12 477//477 4//4
f  478//478 8//8 14//14
f  480//480 478//478 14//14
f  479//479 9//9 16//16
f  481//481 479//479 16//16
f  480//480 14//14 18//18
f  482//482 480//480 18//18
f  481//481 16//16 20//20
f  468//468 481//481 20//20
f  482//482 18//18 22//22
f  470//470 482//482 22//22
f  468//468 20//20 24//24
f  469//469 468//468 24//24
f  470//470 22//22 26//26
f  471//471 470//470 26//26
f  469//469 24//24 28//28
f  472//472 469//469 28//28
f  471//471 26//26 30//30
f  473//473 471//471 30//30
f  472//472 28//28 32//32
f  474//474 472//472 32//32
f  473//473 30//30 1//1
f  475//475 473//473 1//1
f  474//474 32//32 5//5
f  476//476 474//474 5//5
f  475//475 1//1 4//4
f  477//477 475//475 4//4

