{
    "object_path": "../assets/models/vehicles/car_007/car_007.obj",
    "threads": 12,
    "mode": 1,
    "frequency": 1e9,
    "polarization": [1, 0, 0, 0],
    "inc_theta": [37, 10, -180],
    "inc_phi": [5, 18, 45],
    "inc_wrap": true,
    "ref_theta": [37, 10, -180],
    "ref_phi": [5, 18, 45],
    "ref_wrap": true,
    "x_symmetry": true,
    "y_symmetry": false,
    "z_symmetry": false,
    "meshes":
    [
        {
            "mesh": 0,
            "partitions":
            [
                {"vertex": [0.715, 0.337, -1.289], "weight": 1.0, "enabled": true},
                {"vertex": [0.715, 0.337, 1.264], "weight": 1.0, "enabled": true},
                {"vertex": [0.457, 0.843, 1.748], "weight": 1.0, "enabled": true},
                {"vertex": [0.457, 0.470, -1.738], "weight": 1.0, "enabled": true},
                {"vertex": [0.859, 1.065, -0.609], "weight": 1.0, "enabled": true}
            ]
        },
        {
            "mesh": 1,
            "partitions":
            [
                {"vertex": [0.715, 0.337, -1.289], "weight": 1.0, "enabled": true},
                {"vertex": [0.715, 0.337, 1.264], "weight": 1.0, "enabled": true},
                {"vertex": [0, 0.335, 2.047], "weight": 1.0, "enabled": false}
            ]
        },
        {
            "mesh": 2,
            "partitions":
            [
                {"vertex": [0.715, 0.337, -1.289], "weight": 1.0, "enabled": true},
                {"vertex": [0.715, 0.337, 1.264], "weight": 1.0, "enabled": true},
                {"vertex": [0, 0.335, 0.056], "weight": 1.0, "enabled": true},
                {"vertex": [0, 0.645, 1.990], "weight": 1.0, "enabled": true},
                {"vertex": [0, 1.05, 1.275], "weight": 1.0, "enabled": true},
                {"vertex": [0.506, 1.108, 0.267], "weight": 1.0, "enabled": true},
                {"vertex": [0, 1.030, -0.544], "weight": 1.0, "enabled": true}
            ]
        },
        {
            "mesh": 3,
            "partitions":
            [
                {"vertex": [0, 1.030, -0.544], "weight": 1.0, "enabled": true},
                {"vertex": [0, 1.030, 1.366], "weight": 1.0, "enabled": true},
                {"vertex": [0.544, 1.116, 0.269], "weight": 1.0, "enabled": true}
            ]
        },
        {
            "mesh": 4,
            "partitions":
            [
                {"vertex": [0.432, 0.579, -1.649], "weight": 1.0, "enabled": true},
                {"vertex": [0.657, 0.579, 0.020], "weight": 1.0, "enabled": true},
                {"vertex": [0.451, 0.697, 1.718], "weight": 1.0, "enabled": true},
                {"vertex": [0, 1.268, 0.372], "weight": 1.0, "enabled": true}
            ]
        },
        {
            "mesh": 5,
            "partitions":
            [
                {"vertex": [0, 0, 0], "weight": 1.0, "enabled": false}
            ]
        },
        {
            "mesh": 6,
            "partitions":
            [
                {"vertex": [0, 0.881, 1.856], "weight": 1.0, "enabled": true}
            ]
        },
        {
            "mesh": 7,
            "partitions":
            [
                {"vertex": [0.516, 0.837, 1.735], "weight": 1.0, "enabled": true},
                {"vertex": [0.516, 0.666, -1.762], "weight": 1.0, "enabled": true}
            ]
        }
    ]
}
